Josh_Roney_HW2/transcript
# vsim -c testHandshake 
# //  QuestaSim-64 6.5f Jun 16 2010 Linux 4.15.0-36-generic
# //
# //  Copyright 1991-2010 Mentor Graphics Corporation
# //              All Rights Reserved.
# //
# //  THIS WORK CONTAINS TRADE SECRET AND 
# //  PROPRIETARY INFORMATION WHICH IS THE PROPERTY
# //  OF MENTOR GRAPHICS CORPORATION OR ITS LICENSORS
# //  AND IS SUBJECT TO LICENSE TERMS.
# //
# Loading work.testHandshake
# Loading work.Handshake
# R = 0 	 A = 0 	 Reset = 0 	 E = 0 	 state = 0 	 clock = 0
# R = 1 	 A = 0 	 Reset = 0 	 E = 0 	 state = 0 	 clock = 0
# R = 1 	 A = 0 	 Reset = 0 	 E = 0 	 state = 1 	 clock = 1
# R = 1 	 A = 0 	 Reset = 0 	 E = 0 	 state = 1 	 clock = 0
# R = 1 	 A = 1 	 Reset = 0 	 E = 0 	 state = 1 	 clock = 0
# R = 1 	 A = 1 	 Reset = 0 	 E = 0 	 state = 2 	 clock = 1
# R = 1 	 A = 1 	 Reset = 0 	 E = 0 	 state = 2 	 clock = 0
# R = 0 	 A = 1 	 Reset = 0 	 E = 0 	 state = 2 	 clock = 0
# R = 0 	 A = 1 	 Reset = 0 	 E = 0 	 state = 3 	 clock = 1
# R = 0 	 A = 1 	 Reset = 0 	 E = 0 	 state = 3 	 clock = 0
# R = 0 	 A = 0 	 Reset = 0 	 E = 0 	 state = 3 	 clock = 0
# R = 0 	 A = 0 	 Reset = 0 	 E = 0 	 state = 0 	 clock = 1
# R = 0 	 A = 0 	 Reset = 0 	 E = 0 	 state = 0 	 clock = 0
# R = 0 	 A = 1 	 Reset = 0 	 E = 0 	 state = 0 	 clock = 0
# R = 0 	 A = 1 	 Reset = 0 	 E = 1 	 state = 4 	 clock = 1
# R = 0 	 A = 1 	 Reset = 0 	 E = 1 	 state = 4 	 clock = 0
# R = 1 	 A = 1 	 Reset = 0 	 E = 1 	 state = 4 	 clock = 0
# R = 1 	 A = 1 	 Reset = 0 	 E = 1 	 state = 4 	 clock = 1
# R = 1 	 A = 1 	 Reset = 0 	 E = 1 	 state = 4 	 clock = 0
# R = 1 	 A = 1 	 Reset = 0 	 E = 1 	 state = 4 	 clock = 1
# R = 1 	 A = 1 	 Reset = 1 	 E = 0 	 state = 0 	 clock = 1
# R = 1 	 A = 1 	 Reset = 1 	 E = 0 	 state = 0 	 clock = 0
