Josh_Roney_HW3/transcript
# vsim -c ssp_test2 
# //  QuestaSim-64 6.5f Jun 16 2010 Linux 4.15.0-36-generic
# //
# //  Copyright 1991-2010 Mentor Graphics Corporation
# //              All Rights Reserved.
# //
# //  THIS WORK CONTAINS TRADE SECRET AND 
# //  PROPRIETARY INFORMATION WHICH IS THE PROPERTY
# //  OF MENTOR GRAPHICS CORPORATION OR ITS LICENSORS
# //  AND IS SUBJECT TO LICENSE TERMS.
# //
# Loading work.ssp_test2
# Loading work.SSP
# Loading work.TxFIFO
# Loading work.transmit
# Loading work.receive
# Loading work.RxFIFO
# data_in = xx 	 data_out = xx 	 ssptxintr = 0 	 ssprxintr = 0
# data_in = ff 	 data_out = xx 	 ssptxintr = 0 	 ssprxintr = 0
# data_in = 94 	 data_out = xx 	 ssptxintr = 0 	 ssprxintr = 0
# data_in = 0f 	 data_out = xx 	 ssptxintr = 0 	 ssprxintr = 0
# data_in = 51 	 data_out = xx 	 ssptxintr = 0 	 ssprxintr = 0
# data_in = 24 	 data_out = xx 	 ssptxintr = 0 	 ssprxintr = 0
# data_in = 24 	 data_out = xx 	 ssptxintr = 1 	 ssprxintr = 0
# data_in = 67 	 data_out = xx 	 ssptxintr = 1 	 ssprxintr = 0
# data_in = f3 	 data_out = xx 	 ssptxintr = 1 	 ssprxintr = 0
# data_in = b6 	 data_out = xx 	 ssptxintr = 1 	 ssprxintr = 0
# data_in = 84 	 data_out = xx 	 ssptxintr = 1 	 ssprxintr = 0
# data_in = 84 	 data_out = xx 	 ssptxintr = 0 	 ssprxintr = 0
# data_in = 84 	 data_out = 94 	 ssptxintr = 0 	 ssprxintr = 0
# data_in = 84 	 data_out = 94 	 ssptxintr = 1 	 ssprxintr = 0
# data_in = 84 	 data_out = 94 	 ssptxintr = 0 	 ssprxintr = 0
# data_in = 84 	 data_out = 94 	 ssptxintr = 0 	 ssprxintr = 1
# data_in = 84 	 data_out = 0f 	 ssptxintr = 0 	 ssprxintr = 0
# data_in = 84 	 data_out = 51 	 ssptxintr = 0 	 ssprxintr = 0
# data_in = 84 	 data_out = 24 	 ssptxintr = 0 	 ssprxintr = 0
# data_in = 84 	 data_out = 84 	 ssptxintr = 0 	 ssprxintr = 0
# data_in = 84 	 data_out = 00 	 ssptxintr = 0 	 ssprxintr = 0
